…
Produce a table that summarizes monthly returns for each of the stocks and SPY; min, max, median, mean, SD.

# YOUR CODE GOES HERE

p1 = myStocks_returns_monthly %>% 
  group_by(symbol) %>% 
  summarize(min=min(monthly_returns),
         max = max(monthly_returns),
         median = median(monthly_returns),
         mean = mean(monthly_returns),
         sd = sd(monthly_returns))
p1

## # A tibble: 31 × 6
##    symbol    min   max  median    mean     sd
##    <chr>   <dbl> <dbl>   <dbl>   <dbl>  <dbl>
##  1 AAPL   -0.577 0.454 0.0352  0.0269  0.115 
##  2 AMGN   -0.170 0.328 0.00856 0.00811 0.0732
##  3 AXP    -0.279 0.875 0.0109  0.0101  0.0921
##  4 BA     -0.458 0.459 0.0165  0.0126  0.0925
##  5 CAT    -0.353 0.350 0.0141  0.0144  0.0898
##  6 CRM    -0.360 0.403 0.0205  0.0262  0.110 
##  7 CSCO   -0.367 0.389 0.0125  0.00606 0.0962
##  8 CVX    -0.224 0.273 0.0108  0.00891 0.0654
##  9 DIS    -0.268 0.234 0.0100  0.0104  0.0737
## 10 DOW    -0.276 0.255 0.0325  0.0156  0.109 
## # … with 21 more rows
…
