…
## # A tibble: 2,720 × 7
##    date       series_id value maturity duration               Year Month
##    <date>     <chr>     <dbl> <chr>    <chr>                 <dbl> <chr>
##  1 1999-01-01 TB3MS      4.34 3m       3-Month Treasury Bill  1999 1    
##  2 1999-02-01 TB3MS      4.44 3m       3-Month Treasury Bill  1999 2    
##  3 1999-03-01 TB3MS      4.44 3m       3-Month Treasury Bill  1999 3    
##  4 1999-04-01 TB3MS      4.29 3m       3-Month Treasury Bill  1999 4    
##  5 1999-05-01 TB3MS      4.5  3m       3-Month Treasury Bill  1999 5    
##  6 1999-06-01 TB3MS      4.57 3m       3-Month Treasury Bill  1999 6    
##  7 1999-07-01 TB3MS      4.55 3m       3-Month Treasury Bill  1999 7    
##  8 1999-08-01 TB3MS      4.72 3m       3-Month Treasury Bill  1999 8    
##  9 1999-09-01 TB3MS      4.68 3m       3-Month Treasury Bill  1999 9    
## 10 1999-10-01 TB3MS      4.86 3m       3-Month Treasury Bill  1999 10   
## # … with 2,710 more rows
…
## # A tibble: 544 × 7
##    date       series_id value maturity duration               year month
##    <date>     <chr>     <dbl> <chr>    <chr>                 <dbl> <dbl>
##  1 1999-01-01 TB3MS      4.34 3m       3-Month Treasury Bill  1999     1
##  2 1999-02-01 TB3MS      4.44 3m       3-Month Treasury Bill  1999     2
##  3 1999-03-01 TB3MS      4.44 3m       3-Month Treasury Bill  1999     3
##  4 1999-04-01 TB3MS      4.29 3m       3-Month Treasury Bill  1999     4
##  5 1999-05-01 TB3MS      4.5  3m       3-Month Treasury Bill  1999     5
##  6 1999-06-01 TB3MS      4.57 3m       3-Month Treasury Bill  1999     6
##  7 1999-07-01 TB3MS      4.55 3m       3-Month Treasury Bill  1999     7
##  8 1999-08-01 TB3MS      4.72 3m       3-Month Treasury Bill  1999     8
##  9 1999-09-01 TB3MS      4.68 3m       3-Month Treasury Bill  1999     9
## 10 1999-10-01 TB3MS      4.86 3m       3-Month Treasury Bill  1999    10
## # … with 534 more rows
…
